{
	"mp3-is-die":
	{
		"id":1,
		"title":"m\u0259ni saxl\u0131n",
		"file_name":"mp3-is-die.md",
		"tag":[1,5,7],
		"meta_keyword":"",
		"description":"",
		"image":"URL",
		"short-link":"",
		"category":[1,5,7],
		"date":""
	},
	"0":1
}