{
	"mp3-is-die":
	{
		"id":1,
		"title":"این یک تست است ",
		"file_name":"mp3-is-die.md",
		"tag":[1,5,7],
		"meta_keyword":"",
		"description":"",
		"image":"URL",
		"short-link":"",
		"category":[1,5,7],
		"date":"12-2-1397"
	},
	"0":1
}