{
	"public" :
	{

		"title" : "GeekSesi | Mohammad Javad Ghasemi"

	},

	"header" :
	{

		"GeekSesi" : "GeekSəsi"

	},

	"footer" :
	{

		"New Portfolio" : {"ساخت این بلاگ":"https://github.com/geeksesi","تست برای نمونه کار":"https://geeksesi.xyz","0":"آخرین نمونه‌کار‌ها"},
		"Our Friends"   : {"فرهاد حسن پومر":"https://farhad.in","پرستاران زنجان ":"https://znurses.ir","0":"دوستان ما"},
		"Best Lesson"   : {"فعلا چیزی موجود نیست ":"https://geeksesi.xyz","این هم موجود نمی باشد ":"https://geeksesi.xyz","0":"دوره های ویژه"},
		"Other Links"   : {"لینک دیگر چی بکنیم توش ؟":"https://geeksesi.xyz","و دیگر لینک":"https://geeksesi.xyz","0":"لینکستون"}

	}

}